[gd_scene load_steps=4 format=2]

[ext_resource path="res://assets/sprites/convoyeur/conveyur.png" type="Texture" id=1]

[sub_resource type="RectangleShape2D" id=1]
extents = Vector2( 321.5, 10 )

[sub_resource type="AtlasTexture" id=2]
flags = 2
atlas = ExtResource( 1 )
region = Rect2( 0, 0, 520, 54 )

[node name="Convoyor" type="StaticBody2D"]
position = Vector2( 0, 192 )
constant_linear_velocity = Vector2( 100, 0 )

[node name="CollisionShape2D" type="CollisionShape2D" parent="."]
position = Vector2( 258.5, 55 )
shape = SubResource( 1 )

[node name="Conveyur" type="Sprite" parent="."]
position = Vector2( 257, 44 )
texture = SubResource( 2 )
